<svg xmlns="http://www.w3.org/2000/svg" width="110" height="20">
  <metadata xmlns:dc="http://purl.org/dc/elements/1.1/" xmlns:cc="http://creativecommons.org/ns#" xmlns:rdf="http://www.w3.org/1999/02/22-rdf-syntax-ns#">
    <rdf:RDF>
      <cc:Work>
        <dc:format>image/svg+xml</dc:format>
        <dc:type rdf:resource="http://purl.org/dc/dcmitype/StillImage"/>
        <dc:title>delightful badge</dc:title>
        <cc:license rdf:resource="http://creativecommons.org/licenses/by/4.0/"/>
        <dc:subject>teaserbot labs™ delightful badge</dc:subject>
        <dc:creator rdf:href="https://codeberg.org/circlebuilder"/>
      </cc:Work>
      <cc:License rdf:about="http://creativecommons.org/licenses/by/4.0/">
        <cc:requires rdf:resource="http://creativecommons.org/ns#Attribution" />
      </cc:License>
    </rdf:RDF>
  </metadata>
  <path d="M30.4.07h76.17c1.53 0 3.36 1.79 3.36 3.27V16.6c0 1.48-1.83 3.26-3.36 3.26H30.4z" fill="#cc00cc"/>
  <path d="M30.55.1H2.89C2.3.1.29 1.87.29 3.35v13.27c0 1.48 2.01 3.26 2.6 3.26h27.66z" fill="#f0b3f0"/>
  <g>
    <path d="M8.58 5.67c-.01 1.44-.24 3.19-.75 4.18l1.25.56c.56-1.2.8-3.06.78-4.58zm5.38 2.61c-.16-.81-.69-2.1-1.22-3.07l-.81.37V2.52h-1.84v14.93h1.84V6.35c.38.86.72 1.84.83 2.5zm6.25 1.36h-4.38V7.51h4.38zm.23 5.97c-.27 0-.3-.05-.3-.51v-3.68h2.03V5.75H20.5c.48-.7 1.04-1.63 1.6-2.5l-1.89-.78c-.32.93-.92 2.16-1.44 2.96l.66.32h-2.88l.6-.28c-.25-.84-.95-1.99-1.64-2.87l-1.49.7c.55.74 1.1 1.7 1.4 2.45h-1.45v5.67h1.44c-.16 2.16-.56 3.8-2.86 4.75a5.4 5.4 0 011.14 1.5c2.76-1.3 3.37-3.45 3.6-6.25h1v3.7c0 1.66.32 2.2 1.83 2.2h1.23c1.18 0 1.63-.57 1.8-2.85a5.22 5.22 0 01-1.62-.72c-.04 1.64-.1 1.86-.4 1.86z" fill="#b800b8"/>
  </g>
  <g>
    <path d="M39.93 15.13c-3.53.34-5.06-4.78-2.33-6.74 1.27-1.66 4.33 0 4.9-.3V4.07c.65.17 2.01-.36 2.21.27v10.57c-.64-.2-2.14.44-2.14-.41.2-.77-1.96 1.18-2.64.63zm.58-1.72c1.6.1 2.41-1.66 1.87-2.97-1.42-2.65-5.53.2-3.34 2.43.38.37.93.55 1.47.54zM50.29 15.13c-2.7.36-5.14-2.26-4.2-4.92.89-3.71 7.48-3.35 7.75.57.42 1.32-.3 1.6-1.47 1.4h-4.31c.58 2.5 4.4.57 5.16 1.32.55 1.85-1.75 1.45-2.93 1.63zm1.48-4.39c.18-2.49-4.71-1.3-3.3 0h3.3zM55.1 4.07c.65.17 2-.36 2.2.27v10.57c-.65-.18-2 .35-2.2-.28V4.07zM60.06 6.78c-2.68-.2-.11-4 1.13-1.65.35.77-.29 1.7-1.13 1.65zm-1.11 1.09c.66.17 2.02-.35 2.23.27v6.77c-.67-.18-2.02.35-2.23-.28V7.87zM66.58 18.28c-1.44.08-3.14-.23-2.6-1.98 1.33.34 5.07 1.1 4.82-1.7-1.08.34-4.86 1.26-5.81-1.28-1.79-2.84 1.16-6.67 4.36-5.54 1.2.5 1.4.96 1.8.09.68.16 2.18-.49 1.86.68-.07 2.38.16 4.8-.15 7.16-.43 1.93-2.5 2.64-4.28 2.57zm.22-4.87c1.61.12 2.43-1.68 1.86-2.98-1.4-2.64-5.52.2-3.32 2.42.38.39.93.57 1.46.56zM72.54 4.07c.65.17 2.01-.36 2.21.27v4.33c1.48-1.67 5.03-1.35 5.3 1.2.1 1.68.02 3.36.04 5.04-.65-.18-2.01.35-2.21-.28-.05-1.5.09-3-.08-4.49-.89-1.76-3.68-.2-3.05 1.53v3.24c-.65-.18-2.01.35-2.21-.28V4.07zM84.5 15.13c-2.18.22-2.7-2.11-2.5-3.81-.16-.68.49-2.18-.68-1.86-.56.12-.64-1.98.2-1.6.97.13.27-1.4.48-2.03.54-.07 1.78-.22 2.22.06.2.64-.5 2.18.54 1.98 1.16-.34 1.26.39 1.11 1.36-.08.73-2.02-.4-1.65.78.07 1.04-.2 2.16.23 3.14 1.49.1 2.04 0 1.76 1.68-.53.23-1.12.3-1.7.3zM87.29 9.46c-1.22.39-1.06-.6-1.02-1.5 1.13.18 1.1-.72 1.07-1.78.19-1.93 2.94-2.76 4.27-1.82.1 1.25.17 2.05-1.43 1.52-1 .46-1.08 2.6.4 1.99.93-.42.74 1.57.32 1.6-.95-.13-1.75-.1-1.4 1.08v4.36c-.65-.18-2.01.35-2.21-.28V9.46z"/>
    <path d="M94.27 15.13c-2.06.24-3.17-1.9-2.87-3.7V7.88c.65.17 2.01-.36 2.21.27.05 1.5-.09 3 .08 4.48.89 1.77 3.68.25 3.05-1.5V7.87c.65.17 2.01-.36 2.21.27v6.77c-.65-.2-2.14.44-2.14-.41.4-1.1-1.9 1.27-2.54.63zM100.5 4.07c.65.17 2-.36 2.21.27v10.57c-.65-.18-2.01.35-2.21-.28V4.07z"/>
  </g>
  <g aria-label="delightful" fill="#fff">
    <path d="M39.26 14.64q-1.09 0-1.94-.45-.84-.47-1.32-1.3-.47-.86-.47-1.97 0-1.1.47-1.95.47-.85 1.32-1.32.85-.49 1.94-.49.79 0 1.45.22.66.22 1.11.63V3.58h2.22v10.84H41.9v-.76q-.55.51-1.2.75-.62.23-1.44.23zm.57-1.71q.69 0 1.21-.37.55-.37.78-.98v-1.34q-.2-.6-.76-.97-.54-.38-1.23-.38-.9 0-1.47.56-.56.56-.56 1.47 0 .9.56 1.46.57.55 1.47.55zM49.61 14.64q-2.02 0-3.18-.97-1.16-.98-1.16-2.74 0-1.74 1.03-2.76 1.04-1 2.96-1 1.26 0 2.14.46.88.47 1.33 1.3.46.83.46 1.87v.9h-5.8q.23 1.34 2.51 1.34.68 0 1.4-.11.72-.12 1.24-.33v1.56q-.5.22-1.32.35-.8.13-1.6.13zm1.48-4.38q-.04-.7-.53-1.09-.48-.4-1.33-.4-.84 0-1.32.4-.48.4-.53 1.09zM54.41 3.58h2.22v10.84H54.4zM59.38 6.3q-.5 0-.86-.34-.35-.34-.35-.85 0-.5.35-.84.35-.35.86-.35.52 0 .87.35.35.34.35.84 0 .51-.35.85-.35.34-.87.34zm-1.11 1.08h2.23v7.04h-2.23zM65.9 17.8q-.7 0-1.42-.14-.7-.13-1.19-.35v-1.63q1.13.5 2.61.5 1.2 0 1.7-.48.52-.49.52-1.45v-.44q-.46.4-1.12.61-.66.22-1.4.22-1.09 0-1.95-.47-.86-.48-1.34-1.33-.48-.85-.48-1.94 0-1.11.47-1.96.48-.85 1.32-1.3.85-.48 1.93-.48.82 0 1.45.24.63.23 1.2.74v-.76h2.13v6.59q0 1.83-1.08 2.83-1.09 1-3.35 1zm.22-4.87q.7 0 1.24-.37.55-.38.76-1v-1.32q-.24-.61-.78-.98-.53-.37-1.22-.37-.89 0-1.46.55-.56.54-.56 1.45 0 .92.56 1.48.57.56 1.46.56zM71.86 3.58h2.21v4.6q.5-.5 1.13-.75.63-.27 1.35-.27 1.44 0 2.14.78.72.76.72 2.07v4.41H77.2v-4.16q0-1.37-1.26-1.37-.56 0-1.04.28-.49.27-.83.8v4.45h-2.21zM83.83 14.64q-1.23 0-1.88-.67-.63-.7-.63-1.91V8.98H80.3v-1.6h1.02V5.27h2.22v2.11h1.66v1.6h-1.66v2.79q0 .61.23.9.24.26.84.26.48 0 .92-.24v1.66q-.67.3-1.7.3zM86.6 8.98h-1v-1.6h1V6.34q0-1.36.84-2.1.84-.73 2.17-.73.77 0 1.32.23v1.78q-.42-.2-.89-.2-.62 0-.92.29-.3.28-.3.9v.87h1.67v1.6h-1.67v5.44h-2.21zM93.6 14.64q-1.44 0-2.16-.78-.72-.79-.72-2.1V7.39h2.22v4.15q0 1.38 1.27 1.38.56 0 1.04-.26.49-.27.81-.8V7.39h2.21v7.04h-2.14v-.85q-.47.54-1.14.8-.66.27-1.4.27zM99.82 3.58h2.21v10.84h-2.21z"/>
  </g>
</svg>
